7 Explorative Faktorenanalyse – Fortgeschrittene Datenanalyse mit R
…
7.1 Pakete und Daten

Wir laden zunächst die notwendigen R-Pakete. Für die explorative Faktorenanalyse benötigen wir das psych- Paket. Wie immer laden wir außerdem tidyverse und report.

library(psych)
library(tidyverse)
library(report)

Für die explorative Faktorenanalyse nutzen wir den Excel-Datensatz gewohnheiten.xlsx. Dieser enthält u.a. Skalen zur Messung der Gewohnheitsstärke bei der Nutzung von Fernsehen, Computer und Smartphone.

d_habit <- readxl::read_excel("data/gewohnheiten.xlsx")
d_habit

# A tibble: 791 × 195
         id vf_fernseher vf_computer vf_tablet vf_radio vf_zeitung vf_smartphone
      <dbl>        <dbl>       <dbl>     <dbl>    <dbl>      <dbl>         <dbl>
1 403074747            1           1         0        1          0             1
2 403087148            1           1         1        1          0             1
3 403129944            1           1         0        1          1             2
4 403143142            1           1         0        0          0             2
5 403200247            1           1         0        1          0             1
# ℹ 786 more rows
# ℹ 188 more variables: i1_fernseher <dbl>, i1_computer <dbl>, i1_tablet <dbl>,
#   i1_smartphone <dbl>, i1_radio <dbl>, i1_zeitung <dbl>, vm_ferseher <dbl>,
#   vm_computer <dbl>, vm_tablet <dbl>, vm_smartphone <dbl>, vm_radio <dbl>,
#   vm_zeitung <dbl>, r_fernseher <dbl>, r_computer <dbl>, r_tablet <dbl>,
#   r_smartphone <dbl>, r_radio <dbl>, r_zeitung <dbl>, f_einst1 <dbl>,
#   f_einst2 <dbl>, f_einst3 <dbl>, f_einst4 <dbl>, f_srhi_r1 <dbl>, …
…
