4 Lagged und Cross-Lagged Modelle – Fortgeschrittene Datenanalyse mit R
…
Wir laden zunächst die notwendigen R-Pakete. Für Pfadanalysen benötigen wir wieder das lavaan-Paket. Wie immer laden wir tidyverse und report.

library(lavaan)
library(tidyverse)
library(report)
theme_set(theme_minimal())

Als Datensatz verwenden wir eine Zwei-Wellen-Panel-Befragung von Stevic et al. Hier wurden Kinder und Eltern zur (abendlichen) Mediennutzung, Aufmerksamkeitsdefiziten und der Leistung in der Schule befragt.

d_stevic <- haven::read_sav("data/stevic_etal.sav") |>
  mutate(female_child = if_else(gender_child_w1 == 1, 1, 0)) |>
  haven::zap_labels()
d_stevic

# A tibble: 822 × 79
  consent_w1 gender_parent_w1 age_parent_w1 education_parent_w1
       <dbl>            <dbl>         <dbl>               <dbl>
1          1                2            44                   7
2          1                1            44                   7
3          1                2            42                   3
4          1                1            38                   7
5          1                1            40                   4
# ℹ 817 more rows
# ℹ 75 more variables: kids_home_parent_w1 <dbl>, nr_children__parent_w1 <dbl>,
#   age_participating_child_w1 <dbl>, smartphone_parents_w1 <dbl>,
#   smartphone_child_w1 <dbl>, attention1_parent_w1 <dbl>,
#   attention2_parent_w1 <dbl>, attention3_parent_w1 <dbl>,
#   income_parent_w1 <dbl>, gender_child_w1 <dbl>, age_child_w1 <dbl>,
#   education_child_w1 <dbl>, performance1_child_w1 <dbl>, …
…
