9 Messinvarianz – Fortgeschrittene Datenanalyse mit R
…
9.1 Pakete und Daten

Wir laden zunächst die notwendigen R-Pakete. Für die konfirmatorische Faktorenanalyse benötigen wir das lavaan-Paket. Wie immer laden wir außerdem tidyverse und report.

library(lavaan)
library(tidyverse)
library(report)

Für die konfirmatorische Faktorenanalyse nutzen wir wieder den Excel-Datensatz gewohnheiten.xlsx. Wir wählen diesmal nur die Unterdimension Wiederholung bei der TV-Gewohnheitsvariable.

d_habit <- readxl::read_excel("data/gewohnheiten.xlsx")
d_habit |>
  select(starts_with("f_srhi_r"))

# A tibble: 791 × 3
  f_srhi_r1 f_srhi_r2 f_srhi_r3
      <dbl>     <dbl>     <dbl>
1         5         4         4
2         3         3         3
3         5         5         4
4         3         1         3
5         5         4         5
# ℹ 786 more rows
…
