2 Moderationsanalyse – Fortgeschrittene Datenanalyse mit R
…
Für die Moderationsanalyse benötigen wir den SPSS-Datensatz productplacement_moderation.sav. Mit der mutate-Funktion passen wir zwei Variablen an: Die Variable Placementhäufigkeit wird in einen Faktor umgewandelt und ungenutzte Kategorien werden mit fct_drop() entfernt. Ebenso wird die Variable Involvement in einen Faktor umgewandelt. Schließlich entfernt die Funktion zap_labels() die SPSS-Labels, um die Daten ohne zusätzliche Kennzeichnungen zu verwenden. Der Datensatz enthält 6 Spalten. eine laufende Nummer (lfdn), Placementhäufigkeit, Involvement, Bekanntheit und Störempfinden.

d_pp2 <- haven::read_sav("data/productplacement_moderation.sav") |>
  mutate(
    Placementhäufigkeit = as_factor(Placementhäufigkeit) |> fct_drop(),
    Involvement = as_factor(Involvement)
  ) |>
  haven::zap_labels() |>
  select(-onefaktor)
d_pp2

# A tibble: 82 × 5
   lfdn Placementhäufigkeit Involvement Bekanntheit Störempfinden
  <dbl> <fct>               <fct>             <dbl>         <dbl>
1    72 7 Placements        niedrig               1       -0.0529
2    64 7 Placements        niedrig               1       -1.29  
3    65 7 Placements        niedrig               4       -0.362 
4    66 7 Placements        niedrig               1       -0.982 
5    63 7 Placements        niedrig               1       -0.672 
# ℹ 77 more rows
…
