5 Multilevel-Längsschnittanalyse – Fortgeschrittene Datenanalyse mit R
…
library(tidyverse)
library(report)
theme_set(theme_minimal())

Als Datensatz verwenden wir eine Studie von Johannes et al., bei der dieselben Befragten 6 Wochen lang unterschiedliche Mediennutzung und Lebenszufriedenheit berichtet haben. Der Datensatz ist im sog. Langformat, d.h. die Daten aller Wellen werden aufeinander gestapelt, dementsprechend gibt es n = Personen x Wellen Datenzeilen. Die Personen sind mit der Variable id gekennzeichnet, die Erhebungswoche mit wave. Die weiteren Variablen geben dann jeweils die Messung einer Person in einer Woche wieder, stabile Personenmerkmale wie Alter wiederholen sich entsprechend pro Person.

d_johannes <- read_rds("data/johannes_etal.rds") |>
  filter(wave >= 2) |>
  filter(!is.na(tv_time))
d_johannes

# A tibble: 8,882 × 122
  id    gender  wave   age filter_music filter_films filter_tv
  <fct> <fct>  <dbl> <dbl>        <dbl>        <dbl>     <dbl>
1 pp_2  Female     2    22            1            0         0
2 pp_2  Female     3    22            1            0         0
3 pp_2  Female     5    22            1            0         0
4 pp_3  Male       2    43            1            1         0
5 pp_3  Male       3    43            1            1         0
# ℹ 8,877 more rows
# ℹ 115 more variables: filter_video_games <dbl>, filter_ebooks <dbl>,
#   filter_magazines <dbl>, filter_audiobooks <dbl>, music_estimate <dbl>,
#   music_identity_1 <dbl>, music_identity_2 <dbl>, music_identity_3 <dbl>,
#   music_identity_4 <dbl>, music_identity_5 <dbl>, music_identity_6 <dbl>,
#   music_identity_7 <dbl>, music_time <dbl>, music_identity <dbl>,
#   films_estimate <dbl>, films_identity_1 <dbl>, films_identity_2 <dbl>, …
…
