6 Multilevel-Modelle – Fortgeschrittene Datenanalyse mit R
…
library(lme4)
library(marginaleffects)
library(tidyverse)
library(report)
theme_set(theme_minimal())

Für die Multilevel-Analyse nutzen wir den Datensatz zoizner_etal.csv. Die Autor:innen untersuchen, inwieweit Bürger:innen nach dem Ausbruch der Covid19-Pandemie Informationen aus Quellen erhalten haben, deren Inhalte sie normalerweise nicht unbedingt konsumieren. Dazu führten sie eine zweiwellige Panelbefragung in 17 Ländern vor und nach dem Ausbruch der Pandemie durch. Der Datensatz enthält unter anderem die folgenden Variablen: Cross-cutting Exposure in Bezug auf traditionelle Medien (wie häufig werden Personen mit Informationen aus Quellen konfrontiert, deren Inhalte sie normalerweise nicht konsumieren), Besorgnis über die COVID-19-Pandemie und das Land, aus dem die Befragten stammen.

Um die Cross-cutting Exposure zu bestimmen, wurden die Befragten zum einen nach der Häufigkeit der Nutzung bestimmer Medien (nie bis täglich) und ihrer politischen Einstellung (links bis rechts) gefragt. Zum anderen wurden die Medien mit Hilfe von Expert:innen nach ihrer Ideologie (links bis rechts) eingeordnet. Die politische Einstellung der Befragten wurde mit der ideologischen Einordnung der Medien und der Häufigkeit der Mediennutzung korreliert. Die Variable Cross-Cutting Exposure nimmt einen Wert zwischen 0 und 1 an (je höher, desto mehr Cross-Cutting Exposure).

d_zoizner <- read_csv("data/zoizner_etal.csv")
d_zoizner

# A tibble: 14,218 × 36
   ...1  wave date_W2_dateformat_1day_before cross_cutting_consumption_w2_01
  <dbl> <dbl> <date>                                                   <dbl>
1     1     2 2020-05-13                                              0.0333
2     2     2 2020-05-04                                              0.233 
3     3     2 2020-05-04                                              0     
4     4     2 2020-05-11                                             NA     
5     5     2 2020-05-11                                             NA     
# ℹ 14,213 more rows
# ℹ 32 more variables: worried_from_covid_total_01 <dbl>, age <dbl>,
#   female <chr>, female_numeric <dbl>, education_numeric <dbl>,
#   political_interest_w2 <dbl>, political_knowledge_w2 <dbl>,
#   right_ideology_w2 <dbl>, right_ideology_w2_binary <chr>,
#   news_consumption_internet_w2 <dbl>, news_consumption_socialmedia_w2 <dbl>,
#   cross_cutting_consumption_w1_01 <dbl>, …

Multilevel-Modelle werden für die Analyse von hierarchisch geschachtelten Daten verwendet. Diese Datenstruktur liegt hier ebenfalls vor, da Befragte aus unterschiedlichen Ländern enthalten sind. Die Befragten können in Länder geschachtelt werden, sie bilden damit eine Ebene unterhalb der Länder. Entsprechend liegen in unserem Datensatz zwei Ebenen vor: die Länder (Level 2) und die Befragten (Level 1). Unsere abhängige Variable, die Cross-Cutting Exposure zu T2,wurde auf dem Befragtenlevel (Level 1) gemessen.

Wir betrachten zunächst die Level-2-Variable (country), in dem wir uns die Anzahl der Befragten pro Land in unserer Stichprobe ausgeben lassen.

count(d_zoizner, dCountry_W2)

# A tibble: 17 × 2
  dCountry_W2     n
  <chr>       <int>
1 Austria       852
2 Belgium       764
3 Denmark       751
4 France        889
5 Germany       968
# ℹ 12 more rows
…
performance::icc(m0_cc)

# Intraclass Correlation Coefficient

    Adjusted ICC: 0.102
  Unadjusted ICC: 0.102

Etwa 10% der Varianz der Cross-Cutting Exposure lässt sich ausschließlich durch Unterschiede zwischen den Ländern erklären.

Wir können uns auch die vorhergesagte Cross-Cutting Exposure für die verschiedenen Länder ausgeben lassen. Dazu berechnen wir Modelvorhersagen mit der Funktion avg_predictions().

marginaleffects::avg_predictions(m0_cc, by = "dCountry_W2") |>
  as_tibble()

# A tibble: 17 × 10
  rowid dCountry_W2 estimate std.error statistic  p.value s.value conf.low
  <int> <chr>          <dbl>     <dbl>     <dbl>    <dbl>   <dbl>    <dbl>
1     1 Netherlands    0.244    0.0202     12.1  1.93e-33   109.     0.204
2     2 Austria        0.311    0.0202     15.4  3.45e-53   174.     0.271
3     3 France         0.172    0.0202      8.49 2.01e-17    55.5    0.132
4     4 Germany        0.152    0.0202      7.53 5.07e-14    44.2    0.113
5     5 Italy          0.303    0.0202     15.0  9.54e-51   166.     0.264
# ℹ 12 more rows
# ℹ 2 more variables: conf.high <dbl>, rowid_dedup <int>
…
Sowohl die Cross-Cutting Exposure zu T1 als auch die Besorgnis um Covid haben einen positiven sig. Effekt auf die Cross-Cutting Exposure zu T2 (p<.001), wobei ersteres wieder nur als Stabilitätskoeffizient zu interpretieren ist.

Auch für dieses Modell können wir Modellvorhersagen berechnen, hier zum Effekt der Cross-Cutting Exposure.

avg_predictions(m1_cc, variables = c("worried_from_covid_total_01", "dCountry_W2")) |>
  as_tibble()

# A tibble: 85 × 9
  worried_from_covid_total_01 dCountry_W2 estimate std.error statistic   p.value
                        <dbl> <chr>          <dbl>     <dbl>     <dbl>     <dbl>
1                       0     Netherlands    0.214   0.00865      24.7 3.54e-135
2                       0.5   Netherlands    0.250   0.00635      39.3 0        
3                       0.667 Netherlands    0.261   0.00619      42.2 0        
4                       0.833 Netherlands    0.273   0.00640      42.7 0        
5                       1     Netherlands    0.285   0.00696      41.0 0        
# ℹ 80 more rows
# ℹ 3 more variables: s.value <dbl>, conf.low <dbl>, conf.high <dbl>
…
Correlation of Fixed Effects:
            (Intr) c___1_
crss___1_01 -0.149       
wrrd_f___01 -0.672  0.125
optimizer (nloptwrap) convergence code: 0 (OK)
boundary (singular) fit: see help('isSingular')

Das Modell unterstellt jetzt, dass es einen Gesamt-Intercept und Slopes über alle Befragten und Länder gibt sowie länderspezifische Abweichungen davon. Der länderspezifische Effekt ist dann die Summe aus Gesamt-Slope und länderspezifischen Abweichungen. Um diese zu schätzen, gibt es eine spezielle Funktion avg_slopes() mit dem by Parameter.

marginaleffects::avg_slopes(m2_cc, variables = "worried_from_covid_total_01", by = "dCountry_W2") |>
  as_tibble()

# A tibble: 17 × 13
  term        contrast dCountry_W2 estimate std.error statistic  p.value s.value
  <chr>       <chr>    <chr>          <dbl>     <dbl>     <dbl>    <dbl>   <dbl>
1 worried_fr… mean(dY… Austria       0.0833    0.0123      6.76 1.37e-11   36.1 
2 worried_fr… mean(dY… Belgium       0.0590    0.0123      4.79 1.68e- 6   19.2 
3 worried_fr… mean(dY… Denmark       0.0453    0.0123      3.67 2.41e- 4   12.0 
4 worried_fr… mean(dY… France        0.0318    0.0123      2.58 9.99e- 3    6.65
5 worried_fr… mean(dY… Germany       0.0404    0.0123      3.28 1.04e- 3    9.91
# ℹ 12 more rows
# ℹ 5 more variables: conf.low <dbl>, conf.high <dbl>, predicted_lo <dbl>,
#   predicted_hi <dbl>, predicted <dbl>
…
