1 ANOVA und Regression – Fortgeschrittene Datenanalyse mit R
…
Wir laden zunächst die notwendigen R-Pakete. Für die ANOVA und Regression brauchen wir das marginaleffects- , sowie das tidyverse- und das report-Paket. Für eine schönere Darstellung der Plots setzen wir außerdem das Theme auf theme_minimal.

library(marginaleffects)
library(tidyverse)
library(report)
theme_set(theme_minimal())

Für die ANOVA und die Regression nutzen wir den SPSS-Datensatz productplacement_anova.sav und wir wandeln die Spalte Placementhäufigkeit in einen Faktor um, sodass es als kategoriale Variable behandelt wird. Der Datensatz enthält zwei Spalten: die Placementhäufigkeit und das Persuasionswissen.

d_pp <- haven::read_sav("data/productplacement_anova.sav") |>
  mutate(Placementhäufigkeit = as_factor(Placementhäufigkeit))
d_pp

# A tibble: 15 × 2
  Placementhäufigkeit Persuasionswissen
  <fct>                           <dbl>
1 0 Placements                        5
2 0 Placements                        7
3 0 Placements                        3
4 0 Placements                        4
5 0 Placements                        6
# ℹ 10 more rows

Zudem laden wir dem SPSS-Datensatz wahlabsicht_regression.sav. Auch hier wird eine Spalte, in diesem Fall Sex, in einen Faktor umgewandelt, sodass es als kategoriale Variable behandelt wird. Der Datensatz enthält 8 Spalten: Bildung, Sex, Einkommen, Politische Wertorientierung, Wirksamkeitserwartung, Qualitätsmedien, Wahlabsicht und Boulevardmedien.

d_wahl <- haven::read_sav("data/wahlabsicht_regression.sav") |>
  mutate(Sex = as_factor(Sex)) |>
  haven::zap_labels()
d_wahl

# A tibble: 156 × 8
  Bildung Sex      Einkommen PolitischeWertorientierung Wirksamkeitserwartung
    <dbl> <fct>        <dbl>                      <dbl>                 <dbl>
1       2 männlich         2                          5                     1
2       5 männlich         5                          5                     4
3       4 männlich         3                          3                     3
4       3 männlich         2                          4                     2
5       3 männlich         2                          1                     1
# ℹ 151 more rows
# ℹ 3 more variables: Qualitätsmedien <dbl>, Wahlabsicht <dbl>,
#   Boulevardmedien <dbl>
…
